…
## 2. Cleanse Spain populations figures data

From the newly on boarded data, we create a new Year variable from
initial date column. As we only want to display Year values.

``` r
INE_population_subset <- population_data %>%
                         select(date,total_population,foreign_population) %>% 
                         mutate(Year = substring(date, 15, 25)) 
INE_population_subset
```

    ## # A tibble: 22 × 4
    ##    date               total_population foreign_population Year 
    ##    <chr>                         <dbl>              <dbl> <chr>
    ##  1 1 de enero de 2025         49077984            6852348 2025 
    ##  2 1 de enero de 2024         48619695            6502282 2024 
    ##  3 1 de enero de 2023         48085361            6089620 2023 
    ##  4 1 de enero de 2022         47486727            5509046 2022 
    ##  5 1 de enero de 2021         47400798            5402702 2021 
    ##  6 1 de enero de 2020         47318050            5241278 2020 
    ##  7 1 de enero de 2019         46918951            4850762 2019 
    ##  8 1 de enero de 2018         46645070            4577322 2018 
    ##  9 1 de enero de 2017         46497393            4417653 2017 
    ## 10 1 de enero de 2016         46418884            4419334 2016 
    ## # ℹ 12 more rows

``` r
INE_calc_fields <- INE_population_subset %>%                          
                         select(Year,total_population,foreign_population) %>% 
                         mutate(Spanish_nationals = total_population - foreign_population) %>% 
                         arrange(Year)
INE_calc_fields
```

    ## # A tibble: 22 × 4
    ##    Year  total_population foreign_population Spanish_nationals
    ##    <chr>            <dbl>              <dbl>             <dbl>
    ##  1 2004          42547454                 NA                NA
    ##  2 2005          43296335            3430204          39866131
    ##  3 2006          44009969            3930916          40079053
    ##  4 2007          44784659            4449434          40335225
    ##  5 2008          45668938            5086295          40582643
    ##  6 2009          46239271            5386659          40852612
    ##  7 2010          46486621            5402579          41084042
    ##  8 2011          46667175            5312440          41354735
    ##  9 2012          46818216            5236030          41582186
    ## 10 2013          46712650            5064584          41648066
    ## # ℹ 12 more rows
…
